[
  [
    {
      "position": "left",
      "text": "Вас приветствует служба заказа такси ZeTaxi.<br />Назовите, пожалуйста, адрес, откуда Вас необходимо забрать?"
    },
    {
      "position": "right",
      "text": "Улица Ватутина 49"
    },
    {
      "position": "left",
      "text": "Назовите адрес куда поедем"
    },
    {
      "position": "right",
      "text": "Гончарова 24"
    },
    {
      "position": "left",
      "text": "Назовите Ваш номер телефона"
    },
    {
      "position": "right",
      "text": "+79372727722"
    },
    {
      "position": "left",
      "text": "Ваша заявка принята."
    },
    {
      "position": "left",
      "text": "Через 4 минуты к вам подъедет автомобиль Bentley Continental черного цвета.<br />Спасибо, что вы с нами"
    }
  ],
  [
    {
      "position": "left",
      "text": "Привет, я бот ZeFindFood. Я помогу Вам найти ближайшие от вас кафе и рестораны.<br/>Сообщите свое местоположение"
    },
    {
      "position": "right",
      "text": "<img src='/assets/chats/current_location.png' width='300px'>"
    },
    {
      "position": "left",
      "text": "В радиусе 1 км от Вас я нашел 3 ресторана:"
    },
    {
      "position": "left",
      "text": "<b>1.Ресторан \"Дубинин\"</b><br /><img src='/assets/chats/dubinin.png' width='150px' height='150px'/><br />Чек 1000р<br />Бизнес-ланч, Wi-Fi<br />Европейская кухня<br />Расстояние: 520м"
    },
    {
      "position": "left",
      "text": "<b>2.Кафе \"Терем\"</b><br /><img src='/assets/chats/terem.png' width='150px' height='150px'/><br />Европейская, Русская кухни<br />Расстояние: 608м"
    },
    {
      "position": "left",
      "text": "<b>3. Кафе \"Заправщик\"</b><br />Чек 100р<br />Бизнес-ланч<br />Расстояние: 620м"
    },
    {
      "position": "left",
      "text": "<b>Объекты на карте:</b><br /><img src='/assets/chats/map.png' width='200px' height='200px'/>"
    }
  ],
  [
    {
      "position": "left",
      "text": "Привет, я ZeAnalytics бот.",
      "test_data": "Привет,<br> По вашему запросу есть свежая статья:<br /><a href=\"https:\/\/habrahabr.ru\/post\/270957\/\" class=\"news-link\">https:\/\/habrahabr.ru\/post\/270957\/<\/a>\r\n<blockquote class=\"news\">\r\n<div class=\"preview\" style=\"background-image: url('http://goo.gl/7kd6FW');\"><\/div>\r\n<p class=\"news-resource\">Habrahabr<\/p>\r\n<p class=\"news-title\">\u0411\u043e\u0442\u044b \u0432 \u0442\u0435\u043b\u0435\u0433\u0440\u0430\u043c: \u043e\u043f\u044b\u0442, \u043e\u0442\u043a\u0440\u043e\u0432\u0435\u043d\u0438\u044f, \u0441\u043e\u0432\u0435\u0442\u044b \u043f\u043e \u0440\u0430\u0437\u0440\u0430\u0431\u043e\u0442\u043a\u0435<\/p>\r\n<p class=\"news-preview\">\u0421 \u0447\u0435\u0433\u043e \u043c\u044b \u043d\u0430\u0447\u0430\u043b\u0438 \u0434\u0435\u043b\u0430\u0442\u044c \u0431\u043e\u0442\u043e\u0432. Matchmaker, Weatherman, Zodiac. \u0412\u043d\u0438\u043c\u0430\u043d\u0438\u0435! ...<\/p>\r\n<\/blockquote>"
    }
  ]
]
